…
df_new <- df_new %>% mutate(day = factor(day))

# Calculate average number of steps taken across intervals
df_new <- df_new %>% group_by(interval, day) %>% mutate(mean.steps = mean(steps))

df_new
```

```
## # A tibble: 17,568 x 6
## # Groups:   interval, day [576]
##     steps date       interval day.of.week day     mean.steps
##     <dbl> <date>        <int> <ord>       <fct>        <dbl>
##  1 1.72   2012-10-01        0 Mon         weekday     2.25  
##  2 0.340  2012-10-01        5 Mon         weekday     0.445 
##  3 0.132  2012-10-01       10 Mon         weekday     0.173 
##  4 0.151  2012-10-01       15 Mon         weekday     0.198 
##  5 0.0755 2012-10-01       20 Mon         weekday     0.0990
##  6 2.09   2012-10-01       25 Mon         weekday     1.59  
##  7 0.528  2012-10-01       30 Mon         weekday     0.693 
##  8 0.868  2012-10-01       35 Mon         weekday     1.14  
##  9 0      2012-10-01       40 Mon         weekday     0     
## 10 1.47   2012-10-01       45 Mon         weekday     1.80  
## # ... with 17,558 more rows
```
…
